{
    "name": "Qpay",
    "alias": "Qpay",
    "description": "Bank Payment Module for TokenLite to accept payments from contributors.",
    "status": true,
    "type": "core",
    "requires": {
		"app": "^1.3.1",
		"laravel": "~5.7"
	},
	"author": "Softnio",
	"package": "TokenLite",
	"version": "1.3.1",
	"update": "20210901"
}
